package Assignment;

import java.util.Scanner;

public class Series4 {
	  public static void main(String[]args)
	     {
	        int i,n,j;
	        Scanner sc = new Scanner(System.in);
			System.out.println("enter the number");
			n = sc.nextInt();
	        for(i=1; i<=n; i++) {
	             j=i*i;
	             System.out.print( "  "+j );
	        }
	     }
}